[gd_scene load_steps=4 format=2]

[ext_resource path="res://rooms/BaseRoom.tscn" type="PackedScene" id=1]
[ext_resource path="res://rooms/Teleporter.tscn" type="PackedScene" id=2]
[ext_resource path="res://items/spawner.tscn" type="PackedScene" id=3]

[node name="VerticalCorridor" index="0" instance=ExtResource( 1 )]

[node name="Structure" parent="." index="1"]
tile_data = PoolIntArray( -393228, 0, 3, -393227, 0, 131073, -393226, 0, 131073, -393225, 0, 131073, -393224, 0, 131073, -393223, 0, 131073, -393222, 0, 131073, -393221, 0, 131073, -393220, 0, 131073, -393219, 0, 131073, -393218, 0, 131073, -393217, 0, 131073, -458752, 0, 131073, -458751, 0, 131073, -458750, 0, 131073, -458749, 0, 131073, -458748, 0, 131073, -458747, 0, 131073, -458746, 0, 131073, -458745, 0, 131073, -458744, 0, 131073, -458743, 0, 131073, -458742, 0, 131073, -458741, 0, 131073, -458740, 0, 4, -327692, 0, 65538, -327691, 0, 131075, -327690, 0, 131075, -327689, 0, 131075, -327688, 0, 131075, -327687, 0, 131075, -327686, 0, 131075, -327685, 0, 131075, -327684, 0, 131075, -327683, 0, 131075, -327682, 0, 131075, -327681, 0, 131075, -393216, 0, 131075, -393215, 0, 131075, -393214, 0, 131075, -393213, 0, 131075, -393212, 0, 131075, -393211, 0, 131075, -393210, 0, 131075, -393209, 0, 131075, -393208, 0, 131075, -393207, 0, 131075, -393206, 0, 131075, -393205, 0, 131075, -393204, 0, 65536, -262156, 0, 65538, -262155, 0, 131075, -262154, 0, 131075, -262153, 0, 131075, -262152, 0, 131075, -262151, 0, 131075, -262150, 0, 131075, -262149, 0, 131075, -262148, 0, 131075, -262147, 0, 131075, -262146, 0, 131075, -262145, 0, 131075, -327680, 0, 131075, -327679, 0, 131075, -327678, 0, 131075, -327677, 0, 131075, -327676, 0, 131075, -327675, 0, 131075, -327674, 0, 131075, -327673, 0, 131075, -327672, 0, 131075, -327671, 0, 131075, -327670, 0, 131075, -327669, 0, 131075, -327668, 0, 65536, -196620, 0, 65538, -196619, 0, 131075, -196618, 0, 131075, -196617, 0, 131075, -196616, 0, 131075, -196615, 0, 131075, -196614, 0, 131075, -196613, 0, 0, -196612, 0, 1, -196611, 0, 1, -196610, 0, 2, -196609, 0, 131075, -262144, 0, 131075, -262143, 0, 131075, -262142, 0, 131075, -262141, 0, 131075, -262140, 0, 131075, -262139, 0, 131075, -262138, 0, 131075, -262137, 0, 131075, -262136, 0, 131075, -262135, 0, 131075, -262134, 0, 131075, -262133, 0, 131075, -262132, 0, 65536, -131084, 0, 65538, -131083, 0, 131075, -131082, 0, 131075, -131081, 0, 131075, -131080, 0, 131075, -131079, 0, 131075, -131078, 0, 131075, -131077, 0, 65536, -131076, 1, 0, -131075, 1, 0, -131074, 0, 65538, -131073, 0, 131075, -196608, 0, 131075, -196607, 0, 131075, -196606, 0, 131075, -196605, 0, 131075, -196604, 0, 131075, -196603, 0, 131075, -196602, 0, 131075, -196601, 0, 131075, -196600, 0, 131075, -196599, 0, 131075, -196598, 0, 131075, -196597, 0, 131075, -196596, 0, 65536, -65548, 0, 65538, -65547, 0, 131075, -65546, 0, 131075, -65545, 0, 131075, -65544, 0, 131075, -65543, 0, 131075, -65542, 0, 131075, -65541, 0, 65536, -65540, 1, 0, -65539, 1, 0, -65538, 0, 65539, -65537, 0, 1, -131072, 0, 1, -131071, 0, 1, -131070, 0, 1, -131069, 0, 1, -131068, 0, 2, -131067, 0, 131075, -131066, 0, 131075, -131065, 0, 131075, -131064, 0, 131075, -131063, 0, 131075, -131062, 0, 131075, -131061, 0, 131075, -131060, 0, 65536, -12, 0, 65538, -11, 0, 131075, -10, 0, 131075, -9, 0, 131075, -8, 0, 131075, -7, 0, 131075, -6, 0, 131075, -5, 0, 65536, -4, 1, 0, -3, 1, 0, -2, 1, 0, -1, 1, 0, -65536, 1, 0, -65535, 1, 0, -65534, 1, 0, -65533, 1, 0, -65532, 0, 65538, -65531, 0, 131075, -65530, 0, 131075, -65529, 0, 131075, -65528, 0, 131075, -65527, 0, 131075, -65526, 0, 131075, -65525, 0, 131075, -65524, 0, 65536, 65524, 0, 65538, 65525, 0, 131075, 65526, 0, 131075, 65527, 0, 131075, 65528, 0, 131075, 65529, 0, 131075, 65530, 0, 131075, 65531, 0, 65536, 65532, 1, 0, 65533, 1, 0, 65534, 1, 0, 65535, 1, 0, 0, 1, 0, 1, 1, 0, 2, 1, 0, 3, 1, 0, 4, 0, 65538, 5, 0, 131075, 6, 0, 131075, 7, 0, 131075, 8, 0, 131075, 9, 0, 131075, 10, 0, 131075, 11, 0, 131075, 12, 0, 65536, 131060, 0, 65538, 131061, 0, 131075, 131062, 0, 131075, 131063, 0, 131075, 131064, 0, 131075, 131065, 0, 131075, 131066, 0, 131075, 131067, 0, 131072, 131068, 0, 131073, 131069, 0, 131073, 131070, 0, 131073, 131071, 0, 131073, 65536, 0, 131073, 65537, 0, 4, 65538, 1, 0, 65539, 1, 0, 65540, 0, 65538, 65541, 0, 131075, 65542, 0, 131075, 65543, 0, 131075, 65544, 0, 131075, 65545, 0, 131075, 65546, 0, 131075, 65547, 0, 131075, 65548, 0, 65536, 196596, 0, 65538, 196597, 0, 131075, 196598, 0, 131075, 196599, 0, 131075, 196600, 0, 131075, 196601, 0, 131075, 196602, 0, 131075, 196603, 0, 131075, 196604, 0, 131075, 196605, 0, 131075, 196606, 0, 131075, 196607, 0, 131075, 131072, 0, 131075, 131073, 0, 65536, 131074, 1, 0, 131075, 1, 0, 131076, 0, 65538, 131077, 0, 131075, 131078, 0, 131075, 131079, 0, 131075, 131080, 0, 131075, 131081, 0, 131075, 131082, 0, 131075, 131083, 0, 131075, 131084, 0, 65536, 262132, 0, 65538, 262133, 0, 131075, 262134, 0, 131075, 262135, 0, 131075, 262136, 0, 131075, 262137, 0, 131075, 262138, 0, 131075, 262139, 0, 131075, 262140, 0, 131075, 262141, 0, 131075, 262142, 0, 131075, 262143, 0, 131075, 196608, 0, 131075, 196609, 0, 131072, 196610, 0, 131073, 196611, 0, 131073, 196612, 0, 131074, 196613, 0, 131075, 196614, 0, 131075, 196615, 0, 131075, 196616, 0, 131075, 196617, 0, 131075, 196618, 0, 131075, 196619, 0, 131075, 196620, 0, 65536, 327668, 0, 65538, 327669, 0, 131075, 327670, 0, 131075, 327671, 0, 131075, 327672, 0, 131075, 327673, 0, 131075, 327674, 0, 131075, 327675, 0, 131075, 327676, 0, 131075, 327677, 0, 131075, 327678, 0, 131075, 327679, 0, 131075, 262144, 0, 131075, 262145, 0, 131075, 262146, 0, 131075, 262147, 0, 131075, 262148, 0, 131075, 262149, 0, 131075, 262150, 0, 131075, 262151, 0, 131075, 262152, 0, 131075, 262153, 0, 131075, 262154, 0, 131075, 262155, 0, 131075, 262156, 0, 65536, 393204, 0, 65538, 393205, 0, 131075, 393206, 0, 131075, 393207, 0, 131075, 393208, 0, 131075, 393209, 0, 131075, 393210, 0, 131075, 393211, 0, 131075, 393212, 0, 131075, 393213, 0, 131075, 393214, 0, 131075, 393215, 0, 131075, 327680, 0, 131075, 327681, 0, 131075, 327682, 0, 131075, 327683, 0, 131075, 327684, 0, 131075, 327685, 0, 131075, 327686, 0, 131075, 327687, 0, 131075, 327688, 0, 131075, 327689, 0, 131075, 327690, 0, 131075, 327691, 0, 131075, 327692, 0, 65536, 458740, 0, 65539, 458741, 0, 1, 458742, 0, 1, 458743, 0, 1, 458744, 0, 1, 458745, 0, 1, 458746, 0, 1, 458747, 0, 1, 458748, 0, 1, 458749, 0, 1, 458750, 0, 1, 458751, 0, 1, 393216, 0, 1, 393217, 0, 1, 393218, 0, 1, 393219, 0, 1, 393220, 0, 1, 393221, 0, 1, 393222, 0, 1, 393223, 0, 1, 393224, 0, 1, 393225, 0, 1, 393226, 0, 1, 393227, 0, 1, 393228, 0, 65540 )

[node name="Teleporter" parent="." index="2" instance=ExtResource( 2 )]
position = Vector2( -192, -224 )
rotation = 1.57079
orientation = 2

[node name="Teleporter2" parent="." index="3" instance=ExtResource( 2 )]
position = Vector2( 192, 224 )
rotation = -1.57079
orientation = 3

[node name="Spawner" parent="." index="5" instance=ExtResource( 3 )]
position = Vector2( -194.683, -101.381 )

[node name="Spawner2" parent="." index="6" instance=ExtResource( 3 )]
position = Vector2( -194.683, -22.622 )

[node name="Spawner3" parent="." index="7" instance=ExtResource( 3 )]
position = Vector2( -104.469, -1.14243 )

[node name="Spawner4" parent="." index="8" instance=ExtResource( 3 )]
position = Vector2( -17.118, 0.289551 )

[node name="Spawner5" parent="." index="9" instance=ExtResource( 3 )]
position = Vector2( 65.9365, 1.72153 )

[node name="Spawner6" parent="." index="10" instance=ExtResource( 3 )]
position = Vector2( 151.855, 1.72153 )

[node name="Spawner7" parent="." index="11" instance=ExtResource( 3 )]
position = Vector2( 196.246, 57.5685 )

[node name="Spawner8" parent="." index="12" instance=ExtResource( 3 )]
position = Vector2( 199.11, 132.031 )

