[gd_scene load_steps=3 format=2]

[ext_resource path="res://items/get_item.wav" type="AudioStream" id=1]

[sub_resource type="GDScript" id=1]

script/source = "extends AudioStreamPlayer

class_name ItemSFX

func _ready():
	play()
	yield(get_tree().create_timer(1), \"timeout\")
	queue_free()
"

[node name="ItemSFX" type="AudioStreamPlayer"]
stream = ExtResource( 1 )
script = SubResource( 1 )

