[gd_scene load_steps=3 format=2]

[ext_resource path="res://hud/timer.png" type="Texture" id=1]
[ext_resource path="res://hud/Clock.gd" type="Script" id=2]

[node name="Clock" type="TextureProgress"]
modulate = Color( 0.509804, 0.0313726, 0.607843, 1 )
anchor_left = 0.5
anchor_right = 0.5
margin_left = -64.0
margin_right = 64.0
margin_bottom = 128.0
value = 100.0
texture_progress = ExtResource( 1 )
fill_mode = 5
script = ExtResource( 2 )

