[gd_scene load_steps=4 format=2]

[ext_resource path="res://rooms/BaseRoom.tscn" type="PackedScene" id=1]
[ext_resource path="res://rooms/Teleporter.tscn" type="PackedScene" id=2]
[ext_resource path="res://items/spawner.tscn" type="PackedScene" id=3]

[node name="LivingRoom" index="0" instance=ExtResource( 1 )]

[node name="Structure" parent="." index="1"]
tile_data = PoolIntArray( -393227, 0, 3, -393226, 0, 131073, -393225, 0, 131073, -393224, 0, 131073, -393223, 0, 131073, -393222, 0, 131073, -393221, 0, 131073, -393220, 0, 131073, -393219, 0, 131073, -393218, 0, 131073, -393217, 0, 131073, -458752, 0, 131073, -458751, 0, 131073, -458750, 0, 131073, -458749, 0, 131073, -458748, 0, 131073, -458747, 0, 131073, -458746, 0, 131073, -458745, 0, 131073, -458744, 0, 131073, -458743, 0, 131073, -458742, 0, 131073, -458741, 0, 4, -327691, 0, 65538, -327690, 0, 131075, -327689, 0, 131075, -327688, 0, 131075, -327687, 0, 131075, -327686, 0, 131075, -327685, 0, 131075, -327684, 0, 131075, -327683, 0, 131075, -327682, 0, 131075, -327681, 0, 131075, -393216, 0, 131075, -393215, 0, 131075, -393214, 0, 131075, -393213, 0, 131075, -393212, 0, 131075, -393211, 0, 131075, -393210, 0, 131075, -393209, 0, 131075, -393208, 0, 131075, -393207, 0, 131075, -393206, 0, 131075, -393205, 0, 65536, -262155, 0, 65538, -262154, 0, 131075, -262153, 0, 131075, -262152, 0, 131075, -262151, 0, 131075, -262150, 0, 131075, -262149, 0, 131075, -262148, 0, 131075, -262147, 0, 131075, -262146, 0, 131075, -262145, 0, 131075, -327680, 0, 131075, -327679, 0, 131075, -327678, 0, 131075, -327677, 0, 131075, -327676, 0, 131075, -327675, 0, 131075, -327674, 0, 131075, -327673, 0, 131075, -327672, 0, 131075, -327671, 0, 131075, -327670, 0, 131075, -327669, 0, 65536, -196619, 0, 65538, -196618, 0, 131075, -196617, 0, 131075, -196616, 0, 131075, -196615, 0, 131075, -196614, 0, 0, -196613, 0, 1, -196612, 0, 1, -196611, 0, 1, -196610, 0, 2, -196609, 0, 131075, -262144, 0, 0, -262143, 0, 1, -262142, 0, 1, -262141, 0, 1, -262140, 0, 1, -262139, 0, 1, -262138, 0, 2, -262137, 0, 131075, -262136, 0, 131075, -262135, 0, 131075, -262134, 0, 131075, -262133, 0, 65536, -131083, 0, 65538, -131082, 0, 131075, -131081, 0, 131075, -131080, 0, 131075, -131079, 0, 131075, -131078, 0, 65536, -131077, 1, 0, -131076, 1, 0, -131075, 536870913, 0, -131074, 0, 65539, -131073, 0, 1, -196608, 0, 65540, -196607, 1, 0, -196606, 1, 0, -196605, 1, 0, -196604, 1, 0, -196603, 1, 0, -196602, 0, 65538, -196601, 0, 131075, -196600, 0, 131075, -196599, 0, 131075, -196598, 0, 131075, -196597, 0, 65536, -65547, 0, 65538, -65546, 0, 131075, -65545, 0, 131075, -65544, 0, 131075, -65543, 0, 131075, -65542, 0, 65536, -65541, 1, 0, -65540, 1, 0, -65539, 1, 0, -65538, 536870913, 0, -65537, 1, 0, -131072, 1, 0, -131071, 536870913, 0, -131070, 1, 0, -131069, 1, 0, -131068, 1, 0, -131067, 1, 0, -131066, 0, 65538, -131065, 0, 131075, -131064, 0, 131075, -131063, 0, 131075, -131062, 0, 131075, -131061, 0, 65536, -11, 0, 65538, -10, 0, 131075, -9, 0, 131075, -8, 0, 131075, -7, 0, 131075, -6, 0, 65536, -5, 1, 0, -4, 1, 0, -3, 1, 0, -2, 1, 0, -1, 1, 0, -65536, 1, 0, -65535, 1, 0, -65534, 1, 0, -65533, 1, 0, -65532, 1, 0, -65531, 1, 0, -65530, 0, 65538, -65529, 0, 131075, -65528, 0, 131075, -65527, 0, 131075, -65526, 0, 131075, -65525, 0, 65536, 65525, 0, 65538, 65526, 0, 131075, 65527, 0, 131075, 65528, 0, 131075, 65529, 0, 131075, 65530, 0, 65536, 65531, 1, 0, 65532, 1, 0, 65533, 1, 0, 65534, 1, 0, 65535, 1, 0, 0, 1, 0, 1, 1, 0, 2, 1, 0, 3, 1, 0, 4, 1, 0, 5, 1, 0, 6, 0, 65538, 7, 0, 131075, 8, 0, 131075, 9, 0, 131075, 10, 0, 131075, 11, 0, 65536, 131061, 0, 65538, 131062, 0, 131075, 131063, 0, 131075, 131064, 0, 131075, 131065, 0, 131075, 131066, 0, 65536, 131067, 1, 0, 131068, 1, 0, 131069, 1, 0, 131070, 1, 0, 131071, 1, 0, 65536, 1, 0, 65537, 1, 0, 65538, 1, 0, 65539, 1, 0, 65540, 1, 0, 65541, 1, 0, 65542, 0, 65538, 65543, 0, 131075, 65544, 0, 131075, 65545, 0, 131075, 65546, 0, 131075, 65547, 0, 65536, 196597, 0, 65538, 196598, 0, 131075, 196599, 0, 131075, 196600, 0, 131075, 196601, 0, 131075, 196602, 0, 65536, 196603, 1, 0, 196604, 1, 0, 196605, 1, 0, 196606, 0, 3, 196607, 0, 131073, 131072, 0, 4, 131073, 536870913, 0, 131074, 1, 0, 131075, 1, 0, 131076, 1, 0, 131077, 1, 0, 131078, 0, 65538, 131079, 0, 131075, 131080, 0, 131075, 131081, 0, 131075, 131082, 0, 131075, 131083, 0, 65536, 262133, 0, 65538, 262134, 0, 131075, 262135, 0, 131075, 262136, 0, 131075, 262137, 0, 131075, 262138, 0, 131072, 262139, 0, 131073, 262140, 0, 131073, 262141, 0, 131073, 262142, 0, 131074, 262143, 0, 131075, 196608, 0, 131072, 196609, 0, 131073, 196610, 0, 131073, 196611, 0, 131073, 196612, 0, 131073, 196613, 0, 131073, 196614, 0, 131074, 196615, 0, 131075, 196616, 0, 131075, 196617, 0, 131075, 196618, 0, 131075, 196619, 0, 65536, 327669, 0, 65538, 327670, 0, 131075, 327671, 0, 131075, 327672, 0, 131075, 327673, 0, 131075, 327674, 0, 131075, 327675, 0, 131075, 327676, 0, 131075, 327677, 0, 131075, 327678, 0, 131075, 327679, 0, 131075, 262144, 0, 131075, 262145, 0, 131075, 262146, 0, 131075, 262147, 0, 131075, 262148, 0, 131075, 262149, 0, 131075, 262150, 0, 131075, 262151, 0, 131075, 262152, 0, 131075, 262153, 0, 131075, 262154, 0, 131075, 262155, 0, 65536, 393205, 0, 65538, 393206, 0, 131075, 393207, 0, 131075, 393208, 0, 131075, 393209, 0, 131075, 393210, 0, 131075, 393211, 0, 131075, 393212, 0, 131075, 393213, 0, 131075, 393214, 0, 131075, 393215, 0, 131075, 327680, 0, 131075, 327681, 0, 131075, 327682, 0, 131075, 327683, 0, 131075, 327684, 0, 131075, 327685, 0, 131075, 327686, 0, 131075, 327687, 0, 131075, 327688, 0, 131075, 327689, 0, 131075, 327690, 0, 131075, 327691, 0, 65536, 458741, 0, 65539, 458742, 0, 1, 458743, 0, 1, 458744, 0, 1, 458745, 0, 1, 458746, 0, 1, 458747, 0, 1, 458748, 0, 1, 458749, 0, 1, 458750, 0, 1, 458751, 0, 1, 393216, 0, 1, 393217, 0, 1, 393218, 0, 1, 393219, 0, 1, 393220, 0, 1, 393221, 0, 1, 393222, 0, 1, 393223, 0, 1, 393224, 0, 1, 393225, 0, 1, 393226, 0, 1, 393227, 0, 65540 )

[node name="Furniture" parent="Structure" index="0"]
tile_data = PoolIntArray( -262141, -2147483643, 0, -131077, 6, 0, -131075, 536870918, 0, -196606, 8, 0, -196602, 536870917, 0, -131071, 8, 0, -131070, 7, 0, -131069, 8, 0, -65534, 8, 0, 4, 536870920, 0, 65539, 536870920, 0, 65540, 536870919, 0, 65541, 536870920, 0, 196603, 6, 0, 196605, 536870918, 0, 131076, 536870920, 0, 131078, 536870917, 0, 196611, -536870907, 0 )

[node name="Teleporter_N" parent="." index="3" instance=ExtResource( 2 )]
position = Vector2( -224, -216 )
rotation = 1.5708
orientation = 2

[node name="Teleporter_S" parent="." index="4" instance=ExtResource( 2 )]
position = Vector2( -224, 224 )
rotation = -1.5708
orientation = 3

[node name="Teleporter_W" parent="." index="5" instance=ExtResource( 2 )]
position = Vector2( -352, 0 )

[node name="Spawner" parent="." index="6" instance=ExtResource( 3 )]
position = Vector2( -116.095, -86.8626 )

[node name="Spawner2" parent="." index="7" instance=ExtResource( 3 )]
position = Vector2( -122.897, 46.4541 )

[node name="Spawner3" parent="." index="8" instance=ExtResource( 3 )]
position = Vector2( 19.9425, 50.5352 )

[node name="Spawner4" parent="." index="9" instance=ExtResource( 3 )]
position = Vector2( 14.501, -85.5022 )

[node name="Spawner5" parent="." index="10" instance=ExtResource( 3 )]
position = Vector2( 146.457, 47.8145 )

[node name="Spawner6" parent="." index="11" instance=ExtResource( 3 )]
position = Vector2( 149.178, -86.8626 )

[node name="Spawner7" parent="." index="12" instance=ExtResource( 3 )]
position = Vector2( 308.342, 50.5352 )

[node name="Spawner8" parent="." index="13" instance=ExtResource( 3 )]
position = Vector2( 302.901, -84.1419 )

[node name="Spawner9" parent="." index="14" instance=ExtResource( 3 )]
position = Vector2( 142.449, 157.938 )

[node name="Spawner10" parent="." index="15" instance=ExtResource( 3 )]
position = Vector2( 206.293, -160.356 )

[node name="Spawner11" parent="." index="16" instance=ExtResource( 3 )]
position = Vector2( 318.935, -163.695 )

